371     9.204 Seconds 0xB1398709E36611D22D41F67F577467A0E208CE0557CE51BEADF4471BFCE20FACD3AF3F41205014EA036697F71225E8F80E1796BD852E075634074513F9CCC269
  9     1.499 Seconds 0xE31BAD52F1769FFFBE3ED72022249B850BD7753E6D30989B3250C72C90F674C11280406A016C1177BE20687811AFB43D6360BAD6AEBF669305028704FAB15609
294     7.783 Seconds 0xD1BFB5D4665DDC09A5937AD2164BC37F6A7728A0557F53054FBAAABE956CC41BE79240ACDE1CF4413CF45DEA66EAC4F7765489F80D517BBD33734056FAE4245D
460    10.983 Seconds 0x8C4FD7DC39FACC3142E6099AE6E86367E4F5F628F6BA3CADC5623906A74601833BDA41B450E07F69384433B2BBD707DFC223C6808799D065ED36259EFBAF5611
100     3.588 Seconds 0xACD606A7BCF29668BB378DEDA5BFBF466D6450C3F46B3DF467289CA93FD0B5F24FBD431F0EAD5EC071D1F9A5109BE3DE2A60B9BB0FBD44CCECA220E1FCC6B5D1
272     7.066 Seconds 0x92CC136A6C4D70779636837893FA7B3D7B53DDD650E1559393477204C6822CF90F58438259B6B2EFB00FE9D010747CF546CE706E1D98648B324B36DCFD12E94F
 95     3.339 Seconds 0xD60A31310576C29A3FDEC0676A8387284682D1AD7DF4E206FA3A0E83562042B4791744695E21CCB2EBF5C4DFBAC337808923C565E897AE9ED4D5BF7BFDC4B249
 98     3.401 Seconds 0xB3524235EF453AAE0E8807CB52D1D71C03C238714E9256DA350DD5A75F0CE168233B44ED17839246E99DAFC3653958F4AF0B63A9A5BBD8F231B7321FFE2A4A83
269     7.035 Seconds 0x99484EF89EA014BDE986FD56410C931311B1C584AB086E79612CAB02E5BE586FE2D64550628CE67527DB9FEE6511F20BCB791A5CB396F8B17760481AFE767DFF
 18     1.747 Seconds 0xDC866CBF37C966E0932F3A4517959EFEDCE0B95BD81BFAECC81F4781755C6E2A4C95463766F8003863C17AFD0F60AC960DCE6F537E9642C419EAD0B9FF284665
383     9.314 Seconds 0xCB2A7541ACB0A2EA7A83DDF70BBCC6F83B806CBDC06AB556E5892B1379D2BD8421A7467943A8E302E295706F649BBD5020C23E75DD2857EE485B8A0BFF5B1559
460    11.044 Seconds 0xFD0C9B8ABAC131170B80BE98D66CFADD654F13F6D5CCFC3369E5AB240DE72299607847A224C4DF8F9D4F40F064258895760B628E06B9B72B1956CBFC003FAC67
148     4.477 Seconds 0x9D92CA553DB8FB4E83D242EB954456BCEDBD6E91D37DFD7A0BAC0EC7A671D708745B490DE291BEE6D6DD06E3B8EA6494DE4855C98EDD2B9218C2C73F01570C87
113     3.697 Seconds 0xF22CDF9A61FB11674625DC2877A63AAD5A4CAF061842CF835534C7B431999D69090849B20A4BF5DF93EEEC800DFE0E650DA9DB9EFB4A607B8CDC968C01D60A81
197     5.351 Seconds 0xD822EC5D1155EB762124D1B365E0F6A4683C3C1974B8E72281539D0FB84B1470C8A34A1555554A0ED22CDCAB0DD6A77C2A1792510925803AD285AC8702223D51
  7     1.497 Seconds 0xA40F05E3700B9F94D722BCC942566E92841B563F2DA51660D99147C5C5AE027E47D94ADBEB67F26C4EA8BD010D87D9AA62F2FFB724DBBFB85DD7D87D02BAA023
193     5.320 Seconds 0x9B610A24AA7F3D99CACD0EA23C6A028F336B2FF0A1CC7395E846398E47E92A2B32624AFC59C063D10E12B7BAB82562076C6CE748D424CA4D7510352602D407A3
192     5.226 Seconds 0xE74D23AA0934F1B780CAF9B818DF7A7D4F4A4A165AB8A2D34083E444554C1839B1984BC2EFD30C2F8A8E9810B7D69435A54854AEEFDB09CB0062611C036C6BEF
108     3.681 Seconds 0xBBE738EF2D7707D0431E92F5FB415E6EBBD98A8B9F7D74DC8A0C9D31E073DE9A46454C67178D432847A07DAD0CEA3E06D4A9DA835C483EB4747C306903EB6989
 10     1.591 Seconds 0x992F49F317457FE411C7DA59E38FAE627918F14F701AE9B0C4E06455E9607D4EF0694CEBD0EF08BC45486891B7605F7AFA9178C7196C6908D15DA30D045100F9
162     4.758 Seconds 0x90814E3451B91DE905722C32DDA3425F2868CB00E44246E5D395561E6B9BA4FBDAF24D0C3F477A2104B2634A61FDE7D7040B6058C8B5739DE895FFB6046A6835
101     3.432 Seconds 0xE51B637975FB3402C7C5C56FC005265094F80B75290718EE1D1E0F0BF6C36B5C6F9F4DB16701B11AC1C448E7B71191A8336CE62D3522A8865CAFCF0304E965FD
305     7.644 Seconds 0xCB11703C25560E11A2C4BAFAAE3FE247A2E79888857D308D493CE4667D74E2632F3A4E14B20B054900023912B6EA2ABF4FDA9CE042FDC845A258E4FE053599BB
343     8.486 Seconds 0x85A19244F8F2FE39401749C27EDC822F1D66661026B81A35BEE472AE8F4E1FCB83824F1C24CE9071FB520EDA0BD66DA79BA9D968BD461CED5C1BCA460600CA6F
309     7.847 Seconds 0xC031B44CCC8FEE61DD69D88A4F79221797E53398C7F303DD348C00F6A1275D33D7CA502497921B99F6A1E4A260C2B08FE77915F0378E719515DEAF8E06CBFA93
 23     1.747 Seconds 0xFAC1D654A02CDE897ABC67522015C1FF12640120692DED85AA338F3EB3009A9B2C12512C0A55A6C1F1F1BA6AB5AEF37733485278B1D6C63DCFA194D6079728BF
  5     1.388 Seconds 0xE965DED615141A9362110B04143CE9F97103B482517CA7EFC79D72D0B776E9F50124516EE706898B70C5AFDC0AEA0431463C219A1068DB67FE124E2807C9F4B5
 88     3.167 Seconds 0xE0B7E3174F87B89855BB5CDD0E507DF620538E33C5A40524D652649939B211A2EBAD518F555EFAF0302FAA95B5878C8E4FB6092BBFB1E5FC154AAAD107E35B69
 87     3.105 Seconds 0xBDFFF41B395630AC2464A441F69ECDEADD92F4F7964179F811262BBD429EB05695D152130EC0C0842DD795795FFDAE02759DA76F7CD61050722C1D750848F39B
508    11.731 Seconds 0xA3F600DEE8B10ABBFF6399CCE4D989E1EB82820AF2B791973D450118C950275D556C527659CA14B36C1585A45FD64719920B5E228AB1300FB7D533700895290B
 79     3.011 Seconds 0xC47C2FA96BA8D4F277B51E1FA3B0E5C073F0DCA5F06892DEDF0B64BB61DADBCC694F53E11796F40AA5A34B97B49B2318FA48515D12D4A476B7412EB309AC8841
  3     1.404 Seconds 0xA1C440AD55774D06465E65838BFF35B431304369C10607B219DF2BDF6AC77A8013735465D0F8B99EA34B367B5F11448C202FEFA1CFF8CECA1422A1570A121FDD
 42     2.199 Seconds 0x991644EE8FEAEB0B3A08B75C8612C9B1E0801D1A352D64E728941DA8ED02A22DFDFC54863F512B0362B5313409AECCE929A9D7327F41D95F2B5AFE000A2B8637
107     3.620 Seconds 0x87BA4D7004D22715215D5B0E7A39F1AB3F1FD07C1D7C1F5145FE013AF178F187D30E54C81C020DCDE18926A65EE9DDA33C9DA654DDD3EE8959CBB7520A5E52D3
286     7.332 Seconds 0xE5025E74EEA09F29F006A2726288419FFC5F3740EE19942580D1C85EFA65903B7D32554CD563D361DF31118A095FFF17628544989AF818DDB6AD29F60AC3EC6D
273     7.191 Seconds 0xA8407C3B87C9F14C99AEDF6139114D8AC78E2B171B2D2098E7C464DD8A03A5F6E6F15633D9CEED241B16EC99B3AEB9A2A4DA998F65F762F05937B2950B75B6AF
126     4.056 Seconds 0xEB7E9A0220F3436F43571C500F9A597592BD1EEE4840AD0B4EB7015C19A1BBB150B0571ADE3A06E756FCC7A85DFD742DE72FEE8630F6AD03FBC23B340C277FE3
 38     2.090 Seconds 0xC8C6AB060AC1BB83120063B4F7E8A9694FFC85B218DE21DF898AC880228E5A65FAD4579E979BCC7B54A4B28C087395A10D178CCAEE1AD75758A3ADD80C8D1767
398     9.843 Seconds 0xB76AB3887FA8F78DF9550766EC0FD163AE9C3914012CDC49A6F4AC122704A9BFCFE657E0744CAF45D378A7FE5DAEA65B200B5BEC4CACEC818714672A0CBFE651
580    13.588 Seconds 0xE09EDE12C82D23BF7DFC39E0B0D3994587BAB9FE8AB6805B3A061DEC3D543681F940592AC3C11D374D9C733807D5F9FD7ECE6796258756536F4805C40DBDE43F
 14     1.591 Seconds 0xE71B19A0FA7FC805D14CB3BE5DE5B11B1E18A1ACE4DD994107EB56EA5C9061F7CCBE5AF8CC9750BDC56829565C736F1303791184BB85EA79B45D17020F217489
263     6.880 Seconds 0xDE6D1DE134F3660AC4F7059757F94518CD687B5D5904F67616A048B3DECB89A4B7475B193AEFC22284D2240F0710F7700CF2F9156ACEF50ECB9573AB0F3ADC89
  3     1.451 Seconds 0xA1AB3BA8CE1CB82D6E9F42862E82510398976F34861882E97D92E5326E699F5F21065C003F5ADBE5C0B7FF1EB15FB1FB4F484E0C35CE3F216E1FFC4A0FECA4DB
159     4.711 Seconds 0x904F442A4303F43755F3E63822A978FDF73722966E673D539AFCC8C472DFEEB9F6185C421C0BBEAF3F8BF490069AC2B5623C1D2E9460544B9C90B59C101F722D
 30     1.981 Seconds 0xE4E9596F67460A5018477F75050B5CEE63C6630BB32C0F5CE48581B1FE07B51A8AC55CE743C5F5A8FC9DDA2D5BAE6C86919DA30300CD893410AA84E9109E6F6D
104     3.510 Seconds 0xD38D61F1DC2D465AFF9C2327F93284E8C266166D9B7AC9C601EF6543027E04745FD75D292076D8727B71CF9FB0E97D40A49172255F5F9E5E3F1B3E3B10D13C1B
 53     2.480 Seconds 0xB9836EB48B882069DA9B18B2E76D40DFD055A380F7F0E1652E0E3A9E892F7B7B1F725D8C6B802CA1B9AFBFCAB0C21657C0FF28D86D3ABE1D84C45436111D6DDB
236     6.568 Seconds 0x9F797B773AE2FA78B59A0E3DD5A7FCD6DE4530935466F9045A2D0FF90FE0F282DF0D5DEFB68980D0F7EDAFF5B09AAF6EDD6CDF8B7B15DDDCCA6D6A311169A171
230     6.084 Seconds 0xEB6594FD9998AE966B97F953B21D74C4FA244AB90D532842B26ABAAF1D43E0905E435EB54C9C292E7469904BB04BE19C16484CF196CC1D5A55BF9627120205B3
 60     2.605 Seconds 0xB751AE83F84E62B42195E4698E92ECB2160364DFC63F57800AA865652AA6CE9EDD795F7BE2AED18CF0E570A1AFFD13CA4F23BA57B2825CD8E111C21D129A68AD
 45     2.387 Seconds 0x9D47BB46A7A93CC3FC94D9F47CCDA8A923F2F1F222B56F1F36C73AC0B15845A59D145FDE2DB825BB2F2360CCAFD5ACE16B91710AC05D7C9726BAD81812E69AB5
156     4.524 Seconds 0x8BEBC3C81C9078CDE3E97DA670F4D0A38292A5540B04298954311E52B5CE94FF722660200A690885ADF7563E0510BD9B7E85402C1EEF91C1552B916A131967AD
294     7.597 Seconds 0xE085D90D40D28EE6A63D16E35356B494EF21E5C94FC8FB929DB9D73F40F65B6006D360C532233F7E6B093BDB5A24676CADE6C6018B5CC6AAC94560B713986703
120     3.869 Seconds 0xA3C3F6D4D9FBE1094FE553D229DFC07FBA50D9A07CDC880504AC73BED094711B709261AC368E5941A6EF16EA047321F7F03C1AF8565C10BD6BCFE956144A3001
206     5.662 Seconds 0x810C07D8C3CA591D1E8E9B36122E1073779040644D79FCD93F803AE2D9810FCF1AB66230EFF01ED5A49701CEAEE9436B1623B93C13803B11C8B15BFA14AFC8E1
 75     2.855 Seconds 0xCCF8215E22800D3BD48C864CEEA38861936F5A8A06662C1797BDE598E6E3FDDD99EC62F68602C7332112E224AE9A75994EFF26A22F367A8F540387F015482C29
 76     3.089 Seconds 0xB2EE2E21D1DAE74AAF8B7BD7DCDE4458A15EE79D62DC43B6C3DCBAF36D9574E459876359D10C1B625F50D24FAE730EB06B6CDD553D119A4E99AC9DEB15945E53
 65     2.714 Seconds 0x98E43AE48135C1598A8A7162CB19004FAF4E74B0BF525B55EFFB904EF446EBEB192263BC1C156F919D8EC27AAE4BA7C787DA94084AECBA0DDF55B3E615E09063
 46     2.325 Seconds 0x87884366F61CFD6371DF1514BF4028490DEE2812A7A115BF0D6573E0F8BD3B45EE3463FEF8C6525B1C62B7EC0386B8819ACE632AA97ECF370DC66D3816135C57
278     7.332 Seconds 0xED7E5029A577D7724CDE0A9FAD7AE4401BDDB52504172D5E3984493B7F6EB24CADCF646143CFA68A5AA0A817035F5198B73C19DDB759EEF6536F8333165F904F
240     6.255 Seconds 0xB0BC6DF03EA12995F686478E8403F02BE70CA8FC312AB9D1A076E5BA0F0CC807178E6548483AC04D96868326ADAE0C23F9916ED482593909F5FA0BD217115A5D
105     3.510 Seconds 0xFCA887769D56DDB3AC8432A46079681902EBC322EA16E90FF8B490701C6FB61596C4660EDE4D68AB1302637CAD5F3E51326CDC3A9E0F7887814C37C817A9BD9D
189     5.289 Seconds 0xD9F0987A872555C77B2D7A0848C7B80DC02B29E6BAB45DE333885794255C54C940E8669297AF2E3F10AA4E6057D55FC558547A7E5B33A2DBDE2DAA6C180F5679
100     3.494 Seconds 0xAE8AADBFAB676BE03D8113452B299BFE2CBA6A5BFF792FEC7D111081B0841B2AD5956737BF696538CDBC33FDACE9099687B60053C7A0D7C4524779B9188E5409
194     5.460 Seconds 0x8BD2BEC39535E3F40C2A5AA91377EBF2E9F9D11FD016A4C0B7E4D7A5B970B9DE7FB967BB78CB2ACCCB641EE1575F2B0AAD9D9E9784C50218AF28EC5D18F3ECF9
207     5.507 Seconds 0xE06CD408B977FA0DCE7DF3E6F5D9CFE35689119414DB76C9016D90924498803F14666860A08561C58876047EAC72D4DBDCFF246CF13237012342BBAA1972EB53
277     7.066 Seconds 0xAC58ED8E182DAE2B847BDEFCD24F47D172682BBACDC7A60759AB3B4851FB6E4D939C692636980A2304F1E4D4AC24070915DA91D20CE8767FAE94E7A01A0B502D
146     4.431 Seconds 0xEF970B55B157004E2E241BEBA8D853BC3D971F91FADB327AC09DD7C7E1998408FD5B6A0D3B0323E640D7BFE35672C194582FE6C9D7E7C092511F703F1ABD1983
144     4.430 Seconds 0xCCDF1C599B257862FCCD634F9126A3B0FAD68655CB78A74EFB719EEBEA8622BCA77F6A91F464E97A3E7FAAC700E8E3087E17850D950BEAE6AE00E2E31B22B1B3
 13     1.654 Seconds 0xA179319EBF678E7BBF20FC8C738887A16765C6CA103D795744FA57D875ADE91D3C2C6B361C1F2073FB91906455FC8CD9AD790AE201791FCF221AB2301BA1AEED
 81     3.058 Seconds 0x98CB35DFF9DB2C80B2CB4E656D9C1B9E16B5A07B8464D68C53AF49A1F7E910CA26B56B578A7791D8BAFB8B1D009A1536B6F2F273B0C22A6439530ED91BBB1583
 17     1.685 Seconds 0xFEC142A2A936068F8DCA43F05BD6D79524A52D8EE0DAEE2B7FCE1EFC7E9A87D1E6506BBAD580E607F9397B480072AE4DD360A926BE9D4A237EFC24D41C074729
 56     2.449 Seconds 0xED654B241E1D4299751EE7A24FFDFF8F8344E0F0C929A8959D38028E8310D72BBB626BFCB231C8D1780D70BA55ADBF07E65478481D2F5F4DAD6CDE261C3A1391
 40     2.184 Seconds 0xDC0953A693047EA35C738B5444252789E1E49452B17862FFBAA1E6208787268590746C3E8EE2AB9BF6E1662CAAE8CFC1F948476A7BC17477DBDD97781C6CDF8B
162     4.758 Seconds 0xC1FF6069425F58B2377280DF325FE380EFD421650DEE7A9EE6C0BB7B0E389D8C500F6CA1D9EBFFCA351F5657AAC168D815B5FE1D899C94362186AD731CB912A7
 77     2.855 Seconds 0x9F47716D2C2DD0C6061BC8431AAE3374AD138829DE8BEF722194829F17253C40FA336D25934DC55E32C7413B55378A4C3B9D9C6146C0BE8A7E6820171D1EAA31
 78     2.979 Seconds 0x853D7E30DB88AAD5E11ABDCE08E8EF6BBB03153C3B0207114DB357FA9DD6B347B9CE6D88DE57198D7105316655102363580B5314549BDE49C41136121D6ADC59
399     9.579 Seconds 0xEB338AF38AE384E4BC19B359F723AB62C8F2A24F97781EB079D22D5524882A4E79696DEB29606DBCAF43219154E8BC7A747909C76276FE0809BA4C0D1DB71103
141     4.290 Seconds 0x9467B57DD367B11640C0E5D3BBE77344A21123392101C2C20CE39F2F3AD7B710A2C36F3578D4DBAE2966ECCBFF10101CD33C15713B5167DAF1EDEAA71EB50B81
 95     3.369 Seconds 0xF1AFC681BD36292A0F6A2D37A435C3385F5089FDF19F379647B7665343C455C44CE76FB93236A142270ED7AFA9863190F923B3B5F875922E4ECF5D4B1F1AA359
268     6.927 Seconds 0xCEF7D785A704A13EDE13749B8C84132C1C8FF0C1C23CAC6A828B2D774CB0F478F70B703DEB9866D624B6C29353FC53041F0B51F9B599BC82ABB0CFEF1F803CE7
 93     3.260 Seconds 0x9AE3F10B05BA555C94115FB168F98B1A386F0AE77B28DBA8DAC8D82D5A13E2867641710381AB0F34A132A2E953AD853257E6BF5FD14FFC003702FBE520189FD7
134     4.072 Seconds 0xF82C020FEF88CD7062BAA7155147DB0EF5AE71AB4BC6507C159C9F516300813A206571873B0CD4C89EDA8DCDFE23A6A67DCE5DA38E74265493E46E89207E385D
 11     1.544 Seconds 0xD5741313D95745843163EE7939962B02B2EDD86F1C63C550507066756BED1FEECA89720BF46E9A5C9C8278B1A899C81AA3B5FBE74B9850A8F0C5E12D20E3CF9B
 15     1.700 Seconds 0xCCC6175413CAE389250E405233A9BEFF623DB220908B22855F25583EEE28479BB512722C62C70BC15BEC736A53375077AD2FE378FAE15B3D07FE3DD620FD35AF
113     3.682 Seconds 0xBB6A1FD688B21F930C62E40427D0E6F9C0DD658278D9DCEF7C8F3BD0F29E96F58A24726E3F77EE8BDAC068DCA8726131C023B29A59737067366EF7282130028D
570    12.979 Seconds 0x98B230DA728097A7DB0C2B68101F36ED7E1CCC46497751C3B76302F4FB8B35A9344872F2F8D9B41FD86853C052E882A5E60B50DE16979ABB935069CC21959E53
153     4.571 Seconds 0xA7DC68276A5F9DE83AB2536DC31DBAC6652ADA432F770D7476934A29988C39721D3D749F9357764090CA0F25FCE86F5E613C133BFD4D244CC12D1E6122DFC9BB
 17     1.622 Seconds 0x8524792B542E15FC095B9AD1AB6C0ABA226A410700148248B167114DA178D826C76175234CB93BD48E71FA09A75E90D28723B17FBA714EA01E0E9105234560DF
121     3.791 Seconds 0xF3C881ADC9155206F0B03E839F9332B48109F469E8633CB2CED0F4DFA5EF27809C737565296A1E9E0D45EF7BFC99A18C9A1780A1190363CA4C7F4A5723782DC9
219     5.959 Seconds 0xD11092B1B2E3CA1ABF5985E787E182A83E495B2DB900B18609A4BC03AEDBC634469775E9E2CBE4320AEDDA5FA70FC300BFFF1EE5D6278E1EA960BCFB23DDC6C1
 23     1.841 Seconds 0x9CFCAC3711997E38755770FD6456FA965A28755371ECE0C461E266B9BC3EB442C5CD76AF78DE8C908769BAB5A6C0F52EF8DA8C4BF1DDCD9C34B2E8F124762987
174     5.024 Seconds 0x944EB0784C0D1C3D6901C2D65E6A8E9309784F04E6143DF9709758823E79DBEFB05676D0E736FDF546D3B56E515E7D8B025473DCA126D8314BEB459A248F90C1
 39     2.263 Seconds 0xE03AC9FEAAC2D05B1EFFADEC3AE006812557692A9F006D37C8D503384BDCC9FD2F8C77967D49A653C34F95C4510FAFB93B2FE142BCDD17AFD73D71902527F401
  3     1.521 Seconds 0xCEDED2801FAA0C650654519E2F072E7B83F71C8C874F27A1E63EE6CA50531957049E77D859FA891D42238B36A64AC0734E23B0641B6F2CD905AE2AE2255ABFD3
 92     3.307 Seconds 0xC630D6C15A1DAA6AF9FEA377291AC2783346F63DFB7684D6F4F3D893D28E4104EF2777F9C852FA82018D85EF50E848D0579D97F5CAB8376E1CE6878B25742693
224     6.209 Seconds 0xA378E7C543EC227EC8A7EADB1169126CF0865D01CC13F9AA2FC79FB7DB7ADFB8994B787D81B4C016FF3570D3FB5E6A447D85363987DC61C279C7FA2F25D9BFCF
300     7.475 Seconds 0xEF65014BA2A1D69C7EA5D5F1EDDE8A5A0C657727850028E888054A6DE8DDCDC61881794317C768747BB15129FB0F9C72B660A39FA392A140051A2625267224B5
207     5.781 Seconds 0xB2A31F123BCB28BF284E12E0C4679645D7946AFEB213B55BEEF7E6EC787BE38182407A2A1C328237B7972C38A55E56FDF8B5F8966E91EB53A7A4AEC42723EE55
